(footprint "Current_Transformer" (version 20211014) (generator pcbnew)
  (layer "F.Cu")
  (tedit 5D958BE2)
  (attr through_hole)
  (fp_text reference "REF**" (at 0 11.43) (layer "F.SilkS")
    (effects (font (size 1 1) (thickness 0.15)))
    (tstamp bdd60e70-d069-432f-96bc-1e17050cb723)
  )
  (fp_text value "Current_Transformer" (at 0 13.335) (layer "F.Fab")
    (effects (font (size 1 1) (thickness 0.15)))
    (tstamp 9e50feee-fd1e-48c9-aa44-dd6062da7f84)
  )
  (fp_line (start 9.906 -5.08) (end -9.779 -5.08) (layer "F.SilkS") (width 0.12) (tstamp 1c10afe0-5886-4b8e-82fe-b4df69c407ee))
  (fp_line (start -9.779 5.08) (end 9.906 5.08) (layer "F.SilkS") (width 0.12) (tstamp 9b7be77a-2656-471e-885e-8c6c59fe59f7))
  (fp_line (start -9.779 -5.08) (end -9.779 5.08) (layer "F.SilkS") (width 0.12) (tstamp d98d557d-4f4f-49b3-9745-359bb04d0ef7))
  (fp_line (start 9.906 5.08) (end 9.906 -5.08) (layer "F.SilkS") (width 0.12) (tstamp f87c0f2d-c04c-46a9-b58e-d24759249a2d))
  (pad "1" thru_hole circle (at -5.715 0) (size 2 2) (drill 0.762) (layers *.Cu *.Mask) (tstamp debb48c2-0606-4abf-b967-c5cd55bd0d6c))
  (pad "2" thru_hole circle (at 5.715 0) (size 2 2) (drill 0.762) (layers *.Cu *.Mask) (tstamp c36de2cd-62e2-4141-94ed-8598a4021bc0))
  (pad "3" thru_hole circle (at 0 -7.62) (size 3.2 3.2) (drill 1.5) (layers *.Cu *.Mask) (tstamp d0583253-7f1c-498c-afba-93bf9b28c781))
  (pad "4" thru_hole circle (at 0 7.62) (size 3.2 3.2) (drill 1.5) (layers *.Cu *.Mask) (tstamp 150efa79-228d-47e2-89bf-fd8363924d0f))
)
