(footprint "EE10" (version 20211014) (generator pcbnew)
  (layer "F.Cu")
  (tedit 61FCE2A5)
  (attr through_hole)
  (fp_text reference "REF**" (at 0 -6.096) (layer "F.SilkS")
    (effects (font (size 1 1) (thickness 0.15)))
    (tstamp be0953c0-632d-4dd2-85e9-4d41239f22d2)
  )
  (fp_text value "EE10" (at 0 7.112) (layer "F.Fab")
    (effects (font (size 1 1) (thickness 0.15)))
    (tstamp a3668681-09b1-48f0-a7b1-f6b24183a469)
  )
  (fp_rect (start -6.604 -5.08) (end 6.604 6.096) (layer "F.SilkS") (width 0.12) (fill none) (tstamp 21ae9c3a-7138-444e-be38-56a4842ab594))
  (pad "1" thru_hole circle (at -5.08 -3.302) (size 1.524 1.524) (drill 0.762) (layers *.Cu *.Mask) (tstamp 563c12e4-8f8c-446c-a11f-94f5aa93b994))
  (pad "2" thru_hole circle (at -5.08 -0.762) (size 1.524 1.524) (drill 0.762) (layers *.Cu *.Mask) (tstamp 3451168c-3c76-4628-aee4-7c231bd100c3))
  (pad "3" thru_hole circle (at -5.08 1.778) (size 1.524 1.524) (drill 0.762) (layers *.Cu *.Mask) (tstamp ca213826-0282-4b3a-840f-ec416dc34acf))
  (pad "4" thru_hole circle (at -5.08 4.318) (size 1.524 1.524) (drill 0.762) (layers *.Cu *.Mask) (tstamp e63e39d7-6ac0-4ffd-8aa3-1841a4541b55))
  (pad "5" thru_hole circle (at 5.08 4.318) (size 1.524 1.524) (drill 0.762) (layers *.Cu *.Mask) (tstamp 6ff874d0-4ac5-414c-83a7-573eda4c7703))
  (pad "6" thru_hole circle (at 5.08 1.778) (size 1.524 1.524) (drill 0.762) (layers *.Cu *.Mask) (tstamp 9538e4ed-27e6-4c37-b989-9859dc0d49e8))
  (pad "7" thru_hole circle (at 5.08 -0.762) (size 1.524 1.524) (drill 0.762) (layers *.Cu *.Mask) (tstamp e1105432-6a2f-45d9-8a08-47401d087cf4))
  (pad "8" thru_hole circle (at 5.08 -3.302) (size 1.524 1.524) (drill 0.762) (layers *.Cu *.Mask) (tstamp 851ab59d-1fd7-45c7-a775-29797327cafc))
)
