(footprint "EE19" (version 20211014) (generator pcbnew)
  (layer "F.Cu")
  (tedit 60BB01BA)
  (attr through_hole)
  (fp_text reference "REF**" (at 0 11.6) (layer "F.SilkS")
    (effects (font (size 1 1) (thickness 0.15)))
    (tstamp 00000000-0000-0000-0000-000000000000)
  )
  (fp_text value "EE19" (at 0 -9.652) (layer "F.Fab")
    (effects (font (size 1 1) (thickness 0.15)))
    (tstamp 00000000-0000-0000-0000-000000000000)
  )
  (fp_line (start -7.62 -8.89) (end 6.35 -8.89) (layer "F.SilkS") (width 0.12) (tstamp 00000000-0000-0000-0000-000000000000))
  (fp_line (start 6.37 10.6) (end -7.6 10.6) (layer "F.SilkS") (width 0.12) (tstamp 00000000-0000-0000-0000-000000000000))
  (fp_line (start -7.6 10.6) (end -7.62 -8.89) (layer "F.SilkS") (width 0.12) (tstamp 00000000-0000-0000-0000-000000000000))
  (fp_line (start 6.35 -8.89) (end 6.35 10.6) (layer "F.SilkS") (width 0.12) (tstamp 00000000-0000-0000-0000-000000000000))
  (pad "1" thru_hole circle (at -5.8 -7.2) (size 1.524 1.524) (drill 0.762) (layers *.Cu *.Mask) (tstamp 00000000-0000-0000-0000-000000000000))
  (pad "2" thru_hole circle (at -5.8 -3.2) (size 1.524 1.524) (drill 0.762) (layers *.Cu *.Mask) (tstamp 00000000-0000-0000-0000-000000000000))
  (pad "3" thru_hole circle (at -5.8 0.8) (size 1.524 1.524) (drill 0.762) (layers *.Cu *.Mask) (tstamp 00000000-0000-0000-0000-000000000000))
  (pad "4" thru_hole circle (at -5.8 4.8) (size 1.524 1.524) (drill 0.762) (layers *.Cu *.Mask) (tstamp 00000000-0000-0000-0000-000000000000))
  (pad "5" thru_hole circle (at -5.8 8.8) (size 1.524 1.524) (drill 0.762) (layers *.Cu *.Mask) (tstamp 00000000-0000-0000-0000-000000000000))
  (pad "6" thru_hole circle (at 4.5 8.8) (size 1.524 1.524) (drill 0.762) (layers *.Cu *.Mask) (tstamp 00000000-0000-0000-0000-000000000000))
  (pad "7" thru_hole circle (at 4.5 4.8) (size 1.524 1.524) (drill 0.762) (layers *.Cu *.Mask) (tstamp 00000000-0000-0000-0000-000000000000))
  (pad "8" thru_hole circle (at 4.5 0.8) (size 1.524 1.524) (drill 0.762) (layers *.Cu *.Mask) (tstamp 00000000-0000-0000-0000-000000000000))
  (pad "9" thru_hole circle (at 4.5 -3.2) (size 1.524 1.524) (drill 0.762) (layers *.Cu *.Mask) (tstamp 00000000-0000-0000-0000-000000000000))
  (pad "10" thru_hole circle (at 4.5 -7.2) (size 1.524 1.524) (drill 0.762) (layers *.Cu *.Mask) (tstamp 00000000-0000-0000-0000-000000000000))
)
